{
  "metadataId": "XMpMcaFt4K/+BzzlbQAIXGVw3R5UntgpvHd273Uo0eo5qoVq4HCRNLN2f8IR+LUxIRaCjleMBce6S0TDsKGHvxjysXgSE7cSgKGw4/8sKU6+hIgGkXy3jzCRJJOAgG5L2NMdOAxb3aO0sq8pqgmaRA\u003d\u003d",
  "basePath": "/template/T52487345401670T/NA_616485533758856",
  "deps": {
    "js": {
      "before": [
        {
          "uri": "/js/directives/px_attributes.directive.js"
        },
        {
          "uri": "/js/controllers/px_range_picker.controller.js"
        }
      ]
    },
    "css": [
      {
        "uri": "/css/index.css"
      }
    ]
  }
}