{
  "additionalSettings": {
    "groups": {
      "$DATETIME": {
        "name": "Datetime",
        "desc": "Configuration",
        "subGroups": {
          "$CONFIG": {
            "name": "Configuration",
            "subSets": {
              "$DATE": {
                "name": "Date",
                "properties": {
                  "$pxblockFutureDates": {
                    "name": "Block future dates",
                    "desc": "Disables the possibility to select future dates",
                    "definer": "SWITCH",
                    "value": "0"
                  },
                  "$pxblockPastDates": {
                    "name": "Block past dates",
                    "desc": "Disables the possibility to select past dates",
                    "definer": "SWITCH",
                    "value": "0"
                  },
                  "$pxdateFormat": {
                    "name": "Date Format",
                    "desc": "Defines the format used for the date",
                    "definer": "TEXTFIELD",
                    "value": "MM/DD/YYYY"
                  },
                  "$pxhidePresets": {
                    "name": "Hide presets",
                    "desc": "Disables the display of the panel to select one of the preselections made available by the system. (For example: the selection of the last 7 days).",
                    "definer": "SWITCH",
                    "value": "0"
                  }
                }
              },
              "$TIME": {
                "name": "Time",
                "properties": {
                  "$pxhideTime": {
                    "name": "Hide time",
                    "desc": "Disables the display of the panel for the time display.",
                    "definer": "SWITCH",
                    "value": "0"
                  },
                  "$pxtimeFormat": {
                    "name": "Time format",
                    "desc": "Defines the format used for the time",
                    "definer": "TEXTFIELD",
                    "value" : "HH:mm A"
                  }
                }
              },
              "$TIMEZONE": {
                "name": "TimeZone",
                "properties": {
                  "$pxshowTimeZone": {
                    "name": "Show time zone",
                    "desc": "Defines if show the timezone in the field. Can have 2 values: 'dropdown': shows the time zone as a dropdown which the user can use to select a different time zone. Only contains a subset of all timezones 'extendedDropdown': shows the time zone as a dropdown which the user can use to select a different time zone. Contains all existing timezones (588) 'text': shows the time zone as text, non editable 'abbreviatedText': shows the time zone as an abbreviated text, non editable (such as PST, EST...)",
                    "definer": "SELECT",
                    "value": {
                      "desc": "none",
                      "longDesc": "No value selected",
                      "value": "none"
                    },
                    "admissibleValues": [
                      {
                        "desc": "none",
                        "longDesc": "No value selected",
                        "value": "none"
                      },
                      {
                        "desc": "dropdown",
                        "longDesc": "show value as dropdown(timezone)",
                        "value": "dropdown"
                      },
                      {
                        "desc": "extendedDropdown",
                        "longDesc": "shows dropdown with extra inforamtion(timezone)",
                        "value": "extendedDropdown"
                      },
                      {
                        "desc": "text",
                        "longDesc": "shows timezone as text.",
                        "value": "text"
                      },
                      {
                        "desc": "abbreviatedText",
                        "longDesc": "shows abbreviated text for timezone.",
                        "value": "abbreviatedText"
                      }
                    ]
                  },
                  "$pxtimeZone": {
                    "name": "Visualization time zone",
                    "desc": "Defines the timezone used to show the date",
                    "definer": "SELECT",
                    "value": {
                      "desc": "AUTO",
                      "longDesc": "It will predict based on system tume",
                      "value": "AUTO"
                    },
                    "admissibleValues": [
                      {
                        "desc": "AUTO",
                        "value": "AUTO"
                      },
                      {
                        "desc": "Africa/Abidjan",
                        "value": "Africa/Abidjan"
                      },
                      {
                        "desc": "Africa/Accra",
                        "value": "Africa/Accra"
                      },
                      {
                        "desc": "Africa/Addis_Ababa",
                        "value": "Africa/Addis_Ababa"
                      },
                      {
                        "desc": "Africa/Algiers",
                        "value": "Africa/Algiers"
                      },
                      {
                        "desc": "Africa/Asmara",
                        "value": "Africa/Asmara"
                      },
                      {
                        "desc": "Africa/Asmera",
                        "value": "Africa/Asmera"
                      },
                      {
                        "desc": "Africa/Bamako",
                        "value": "Africa/Bamako"
                      },
                      {
                        "desc": "Africa/Bangui",
                        "value": "Africa/Bangui"
                      },
                      {
                        "desc": "Africa/Banjul",
                        "value": "Africa/Banjul"
                      },
                      {
                        "desc": "Africa/Bissau",
                        "value": "Africa/Bissau"
                      },
                      {
                        "desc": "Africa/Blantyre",
                        "value": "Africa/Blantyre"
                      },
                      {
                        "desc": "Africa/Brazzaville",
                        "value": "Africa/Brazzaville"
                      },
                      {
                        "desc": "Africa/Bujumbura",
                        "value": "Africa/Bujumbura"
                      },
                      {
                        "desc": "Africa/Cairo",
                        "value": "Africa/Cairo"
                      },
                      {
                        "desc": "Africa/Casablanca",
                        "value": "Africa/Casablanca"
                      },
                      {
                        "desc": "Africa/Ceuta",
                        "value": "Africa/Ceuta"
                      },
                      {
                        "desc": "Africa/Conakry",
                        "value": "Africa/Conakry"
                      },
                      {
                        "desc": "Africa/Dakar",
                        "value": "Africa/Dakar"
                      },
                      {
                        "desc": "Africa/Dar_es_Salaam",
                        "value": "Africa/Dar_es_Salaam"
                      },
                      {
                        "desc": "Africa/Djibouti",
                        "value": "Africa/Djibouti"
                      },
                      {
                        "desc": "Africa/Douala",
                        "value": "Africa/Douala"
                      },
                      {
                        "desc": "Africa/El_Aaiun",
                        "value": "Africa/El_Aaiun"
                      },
                      {
                        "desc": "Africa/Freetown",
                        "value": "Africa/Freetown"
                      },
                      {
                        "desc": "Africa/Gaborone",
                        "value": "Africa/Gaborone"
                      },
                      {
                        "desc": "Africa/Harare",
                        "value": "Africa/Harare"
                      },
                      {
                        "desc": "Africa/Johannesburg",
                        "value": "Africa/Johannesburg"
                      },
                      {
                        "desc": "Africa/Juba",
                        "value": "Africa/Juba"
                      },
                      {
                        "desc": "Africa/Kampala",
                        "value": "Africa/Kampala"
                      },
                      {
                        "desc": "Africa/Khartoum",
                        "value": "Africa/Khartoum"
                      },
                      {
                        "desc": "Africa/Kigali",
                        "value": "Africa/Kigali"
                      },
                      {
                        "desc": "Africa/Kinshasa",
                        "value": "Africa/Kinshasa"
                      },
                      {
                        "desc": "Africa/Lagos",
                        "value": "Africa/Lagos"
                      },
                      {
                        "desc": "Africa/Libreville",
                        "value": "Africa/Libreville"
                      },
                      {
                        "desc": "Africa/Lome",
                        "value": "Africa/Lome"
                      },
                      {
                        "desc": "Africa/Luanda",
                        "value": "Africa/Luanda"
                      },
                      {
                        "desc": "Africa/Lubumbashi",
                        "value": "Africa/Lubumbashi"
                      },
                      {
                        "desc": "Africa/Lusaka",
                        "value": "Africa/Lusaka"
                      },
                      {
                        "desc": "Africa/Malabo",
                        "value": "Africa/Malabo"
                      },
                      {
                        "desc": "Africa/Maputo",
                        "value": "Africa/Maputo"
                      },
                      {
                        "desc": "Africa/Maseru",
                        "value": "Africa/Maseru"
                      },
                      {
                        "desc": "Africa/Mbabane",
                        "value": "Africa/Mbabane"
                      },
                      {
                        "desc": "Africa/Mogadishu",
                        "value": "Africa/Mogadishu"
                      },
                      {
                        "desc": "Africa/Monrovia",
                        "value": "Africa/Monrovia"
                      },
                      {
                        "desc": "Africa/Nairobi",
                        "value": "Africa/Nairobi"
                      },
                      {
                        "desc": "Africa/Ndjamena",
                        "value": "Africa/Ndjamena"
                      },
                      {
                        "desc": "Africa/Niamey",
                        "value": "Africa/Niamey"
                      },
                      {
                        "desc": "Africa/Nouakchott",
                        "value": "Africa/Nouakchott"
                      },
                      {
                        "desc": "Africa/Ouagadougou",
                        "value": "Africa/Ouagadougou"
                      },
                      {
                        "desc": "Africa/Porto-Novo",
                        "value": "Africa/Porto-Novo"
                      },
                      {
                        "desc": "Africa/Sao_Tome",
                        "value": "Africa/Sao_Tome"
                      },
                      {
                        "desc": "Africa/Timbuktu",
                        "value": "Africa/Timbuktu"
                      },
                      {
                        "desc": "Africa/Tripoli",
                        "value": "Africa/Tripoli"
                      },
                      {
                        "desc": "Africa/Tunis",
                        "value": "Africa/Tunis"
                      },
                      {
                        "desc": "Africa/Windhoek",
                        "value": "Africa/Windhoek"
                      },
                      {
                        "desc": "America/Adak",
                        "value": "America/Adak"
                      },
                      {
                        "desc": "America/Anchorage",
                        "value": "America/Anchorage"
                      },
                      {
                        "desc": "America/Anguilla",
                        "value": "America/Anguilla"
                      },
                      {
                        "desc": "America/Antigua",
                        "value": "America/Antigua"
                      },
                      {
                        "desc": "America/Araguaina",
                        "value": "America/Araguaina"
                      },
                      {
                        "desc": "America/Argentina/Buenos_Aires",
                        "value": "America/Argentina/Buenos_Aires"
                      },
                      {
                        "desc": "America/Argentina/Catamarca",
                        "value": "America/Argentina/Catamarca"
                      },
                      {
                        "desc": "America/Argentina/ComodRivadavia",
                        "value": "America/Argentina/ComodRivadavia"
                      },
                      {
                        "desc": "America/Argentina/Cordoba",
                        "value": "America/Argentina/Cordoba"
                      },
                      {
                        "desc": "America/Argentina/Jujuy",
                        "value": "America/Argentina/Jujuy"
                      },
                      {
                        "desc": "America/Argentina/La_Rioja",
                        "value": "America/Argentina/La_Rioja"
                      },
                      {
                        "desc": "America/Argentina/Mendoza",
                        "value": "America/Argentina/Mendoza"
                      },
                      {
                        "desc": "America/Argentina/Rio_Gallegos",
                        "value": "America/Argentina/Rio_Gallegos"
                      },
                      {
                        "desc": "America/Argentina/Salta",
                        "value": "America/Argentina/Salta"
                      },
                      {
                        "desc": "America/Argentina/San_Juan",
                        "value": "America/Argentina/San_Juan"
                      },
                      {
                        "desc": "America/Argentina/San_Luis",
                        "value": "America/Argentina/San_Luis"
                      },
                      {
                        "desc": "America/Argentina/Tucuman",
                        "value": "America/Argentina/Tucuman"
                      },
                      {
                        "desc": "America/Argentina/Ushuaia",
                        "value": "America/Argentina/Ushuaia"
                      },
                      {
                        "desc": "America/Aruba",
                        "value": "America/Aruba"
                      },
                      {
                        "desc": "America/Asuncion",
                        "value": "America/Asuncion"
                      },
                      {
                        "desc": "America/Atikokan",
                        "value": "America/Atikokan"
                      },
                      {
                        "desc": "America/Atka",
                        "value": "America/Atka"
                      },
                      {
                        "desc": "America/Bahia",
                        "value": "America/Bahia"
                      },
                      {
                        "desc": "America/Bahia_Banderas",
                        "value": "America/Bahia_Banderas"
                      },
                      {
                        "desc": "America/Barbados",
                        "value": "America/Barbados"
                      },
                      {
                        "desc": "America/Belem",
                        "value": "America/Belem"
                      },
                      {
                        "desc": "America/Belize",
                        "value": "America/Belize"
                      },
                      {
                        "desc": "America/Blanc-Sablon",
                        "value": "America/Blanc-Sablon"
                      },
                      {
                        "desc": "America/Boa_Vista",
                        "value": "America/Boa_Vista"
                      },
                      {
                        "desc": "America/Bogota",
                        "value": "America/Bogota"
                      },
                      {
                        "desc": "America/Boise",
                        "value": "America/Boise"
                      },
                      {
                        "desc": "America/Buenos_Aires",
                        "value": "America/Buenos_Aires"
                      },
                      {
                        "desc": "America/Cambridge_Bay",
                        "value": "America/Cambridge_Bay"
                      },
                      {
                        "desc": "America/Campo_Grande",
                        "value": "America/Campo_Grande"
                      },
                      {
                        "desc": "America/Cancun",
                        "value": "America/Cancun"
                      },
                      {
                        "desc": "America/Caracas",
                        "value": "America/Caracas"
                      },
                      {
                        "desc": "America/Catamarca",
                        "value": "America/Catamarca"
                      },
                      {
                        "desc": "America/Cayenne",
                        "value": "America/Cayenne"
                      },
                      {
                        "desc": "America/Cayman",
                        "value": "America/Cayman"
                      },
                      {
                        "desc": "America/Chicago",
                        "value": "America/Chicago"
                      },
                      {
                        "desc": "America/Chihuahua",
                        "value": "America/Chihuahua"
                      },
                      {
                        "desc": "America/Coral_Harbour",
                        "value": "America/Coral_Harbour"
                      },
                      {
                        "desc": "America/Cordoba",
                        "value": "America/Cordoba"
                      },
                      {
                        "desc": "America/Costa_Rica",
                        "value": "America/Costa_Rica"
                      },
                      {
                        "desc": "America/Creston",
                        "value": "America/Creston"
                      },
                      {
                        "desc": "America/Cuiaba",
                        "value": "America/Cuiaba"
                      },
                      {
                        "desc": "America/Curacao",
                        "value": "America/Curacao"
                      },
                      {
                        "desc": "America/Danmarkshavn",
                        "value": "America/Danmarkshavn"
                      },
                      {
                        "desc": "America/Dawson",
                        "value": "America/Dawson"
                      },
                      {
                        "desc": "America/Dawson_Creek",
                        "value": "America/Dawson_Creek"
                      },
                      {
                        "desc": "America/Denver",
                        "value": "America/Denver"
                      },
                      {
                        "desc": "America/Detroit",
                        "value": "America/Detroit"
                      },
                      {
                        "desc": "America/Dominica",
                        "value": "America/Dominica"
                      },
                      {
                        "desc": "America/Edmonton",
                        "value": "America/Edmonton"
                      },
                      {
                        "desc": "America/Eirunepe",
                        "value": "America/Eirunepe"
                      },
                      {
                        "desc": "America/El_Salvador",
                        "value": "America/El_Salvador"
                      },
                      {
                        "desc": "America/Ensenada",
                        "value": "America/Ensenada"
                      },
                      {
                        "desc": "America/Fort_Nelson",
                        "value": "America/Fort_Nelson"
                      },
                      {
                        "desc": "America/Fort_Wayne",
                        "value": "America/Fort_Wayne"
                      },
                      {
                        "desc": "America/Fortaleza",
                        "value": "America/Fortaleza"
                      },
                      {
                        "desc": "America/Glace_Bay",
                        "value": "America/Glace_Bay"
                      },
                      {
                        "desc": "America/Godthab",
                        "value": "America/Godthab"
                      },
                      {
                        "desc": "America/Goose_Bay",
                        "value": "America/Goose_Bay"
                      },
                      {
                        "desc": "America/Grand_Turk",
                        "value": "America/Grand_Turk"
                      },
                      {
                        "desc": "America/Grenada",
                        "value": "America/Grenada"
                      },
                      {
                        "desc": "America/Guadeloupe",
                        "value": "America/Guadeloupe"
                      },
                      {
                        "desc": "America/Guatemala",
                        "value": "America/Guatemala"
                      },
                      {
                        "desc": "America/Guayaquil",
                        "value": "America/Guayaquil"
                      },
                      {
                        "desc": "America/Guyana",
                        "value": "America/Guyana"
                      },
                      {
                        "desc": "America/Halifax",
                        "value": "America/Halifax"
                      },
                      {
                        "desc": "America/Havana",
                        "value": "America/Havana"
                      },
                      {
                        "desc": "America/Hermosillo",
                        "value": "America/Hermosillo"
                      },
                      {
                        "desc": "America/Indiana/Indianapolis",
                        "value": "America/Indiana/Indianapolis"
                      },
                      {
                        "desc": "America/Indiana/Knox",
                        "value": "America/Indiana/Knox"
                      },
                      {
                        "desc": "America/Indiana/Marengo",
                        "value": "America/Indiana/Marengo"
                      },
                      {
                        "desc": "America/Indiana/Petersburg",
                        "value": "America/Indiana/Petersburg"
                      },
                      {
                        "desc": "America/Indiana/Tell_City",
                        "value": "America/Indiana/Tell_City"
                      },
                      {
                        "desc": "America/Indiana/Vevay",
                        "value": "America/Indiana/Vevay"
                      },
                      {
                        "desc": "America/Indiana/Vincennes",
                        "value": "America/Indiana/Vincennes"
                      },
                      {
                        "desc": "America/Indiana/Winamac",
                        "value": "America/Indiana/Winamac"
                      },
                      {
                        "desc": "America/Indianapolis",
                        "value": "America/Indianapolis"
                      },
                      {
                        "desc": "America/Inuvik",
                        "value": "America/Inuvik"
                      },
                      {
                        "desc": "America/Iqaluit",
                        "value": "America/Iqaluit"
                      },
                      {
                        "desc": "America/Jamaica",
                        "value": "America/Jamaica"
                      },
                      {
                        "desc": "America/Jujuy",
                        "value": "America/Jujuy"
                      },
                      {
                        "desc": "America/Juneau",
                        "value": "America/Juneau"
                      },
                      {
                        "desc": "America/Kentucky/Louisville",
                        "value": "America/Kentucky/Louisville"
                      },
                      {
                        "desc": "America/Kentucky/Monticello",
                        "value": "America/Kentucky/Monticello"
                      },
                      {
                        "desc": "America/Knox_IN",
                        "value": "America/Knox_IN"
                      },
                      {
                        "desc": "America/Kralendijk",
                        "value": "America/Kralendijk"
                      },
                      {
                        "desc": "America/La_Paz",
                        "value": "America/La_Paz"
                      },
                      {
                        "desc": "America/Lima",
                        "value": "America/Lima"
                      },
                      {
                        "desc": "America/Los_Angeles",
                        "value": "America/Los_Angeles"
                      },
                      {
                        "desc": "America/Louisville",
                        "value": "America/Louisville"
                      },
                      {
                        "desc": "America/Lower_Princes",
                        "value": "America/Lower_Princes"
                      },
                      {
                        "desc": "America/Maceio",
                        "value": "America/Maceio"
                      },
                      {
                        "desc": "America/Managua",
                        "value": "America/Managua"
                      },
                      {
                        "desc": "America/Manaus",
                        "value": "America/Manaus"
                      },
                      {
                        "desc": "America/Marigot",
                        "value": "America/Marigot"
                      },
                      {
                        "desc": "America/Martinique",
                        "value": "America/Martinique"
                      },
                      {
                        "desc": "America/Matamoros",
                        "value": "America/Matamoros"
                      },
                      {
                        "desc": "America/Mazatlan",
                        "value": "America/Mazatlan"
                      },
                      {
                        "desc": "America/Mendoza",
                        "value": "America/Mendoza"
                      },
                      {
                        "desc": "America/Menominee",
                        "value": "America/Menominee"
                      },
                      {
                        "desc": "America/Merida",
                        "value": "America/Merida"
                      },
                      {
                        "desc": "America/Metlakatla",
                        "value": "America/Metlakatla"
                      },
                      {
                        "desc": "America/Mexico_City",
                        "value": "America/Mexico_City"
                      },
                      {
                        "desc": "America/Miquelon",
                        "value": "America/Miquelon"
                      },
                      {
                        "desc": "America/Moncton",
                        "value": "America/Moncton"
                      },
                      {
                        "desc": "America/Monterrey",
                        "value": "America/Monterrey"
                      },
                      {
                        "desc": "America/Montevideo",
                        "value": "America/Montevideo"
                      },
                      {
                        "desc": "America/Montreal",
                        "value": "America/Montreal"
                      },
                      {
                        "desc": "America/Montserrat",
                        "value": "America/Montserrat"
                      },
                      {
                        "desc": "America/Nassau",
                        "value": "America/Nassau"
                      },
                      {
                        "desc": "America/New_York",
                        "value": "America/New_York"
                      },
                      {
                        "desc": "America/Nipigon",
                        "value": "America/Nipigon"
                      },
                      {
                        "desc": "America/Nome",
                        "value": "America/Nome"
                      },
                      {
                        "desc": "America/Noronha",
                        "value": "America/Noronha"
                      },
                      {
                        "desc": "America/North_Dakota/Beulah",
                        "value": "America/North_Dakota/Beulah"
                      },
                      {
                        "desc": "America/North_Dakota/Center",
                        "value": "America/North_Dakota/Center"
                      },
                      {
                        "desc": "America/North_Dakota/New_Salem",
                        "value": "America/North_Dakota/New_Salem"
                      },
                      {
                        "desc": "America/Ojinaga",
                        "value": "America/Ojinaga"
                      },
                      {
                        "desc": "America/Panama",
                        "value": "America/Panama"
                      },
                      {
                        "desc": "America/Pangnirtung",
                        "value": "America/Pangnirtung"
                      },
                      {
                        "desc": "America/Paramaribo",
                        "value": "America/Paramaribo"
                      },
                      {
                        "desc": "America/Phoenix",
                        "value": "America/Phoenix"
                      },
                      {
                        "desc": "America/Port-au-Prince",
                        "value": "America/Port-au-Prince"
                      },
                      {
                        "desc": "America/Port_of_Spain",
                        "value": "America/Port_of_Spain"
                      },
                      {
                        "desc": "America/Porto_Acre",
                        "value": "America/Porto_Acre"
                      },
                      {
                        "desc": "America/Porto_Velho",
                        "value": "America/Porto_Velho"
                      },
                      {
                        "desc": "America/Puerto_Rico",
                        "value": "America/Puerto_Rico"
                      },
                      {
                        "desc": "America/Rainy_River",
                        "value": "America/Rainy_River"
                      },
                      {
                        "desc": "America/Rankin_Inlet",
                        "value": "America/Rankin_Inlet"
                      },
                      {
                        "desc": "America/Recife",
                        "value": "America/Recife"
                      },
                      {
                        "desc": "America/Regina",
                        "value": "America/Regina"
                      },
                      {
                        "desc": "America/Resolute",
                        "value": "America/Resolute"
                      },
                      {
                        "desc": "America/Rio_Branco",
                        "value": "America/Rio_Branco"
                      },
                      {
                        "desc": "America/Rosario",
                        "value": "America/Rosario"
                      },
                      {
                        "desc": "America/Santa_Isabel",
                        "value": "America/Santa_Isabel"
                      },
                      {
                        "desc": "America/Santarem",
                        "value": "America/Santarem"
                      },
                      {
                        "desc": "America/Santiago",
                        "value": "America/Santiago"
                      },
                      {
                        "desc": "America/Santo_Domingo",
                        "value": "America/Santo_Domingo"
                      },
                      {
                        "desc": "America/Sao_Paulo",
                        "value": "America/Sao_Paulo"
                      },
                      {
                        "desc": "America/Scoresbysund",
                        "value": "America/Scoresbysund"
                      },
                      {
                        "desc": "America/Shiprock",
                        "value": "America/Shiprock"
                      },
                      {
                        "desc": "America/Sitka",
                        "value": "America/Sitka"
                      },
                      {
                        "desc": "America/St_Barthelemy",
                        "value": "America/St_Barthelemy"
                      },
                      {
                        "desc": "America/St_Johns",
                        "value": "America/St_Johns"
                      },
                      {
                        "desc": "America/St_Kitts",
                        "value": "America/St_Kitts"
                      },
                      {
                        "desc": "America/St_Lucia",
                        "value": "America/St_Lucia"
                      },
                      {
                        "desc": "America/St_Thomas",
                        "value": "America/St_Thomas"
                      },
                      {
                        "desc": "America/St_Vincent",
                        "value": "America/St_Vincent"
                      },
                      {
                        "desc": "America/Swift_Current",
                        "value": "America/Swift_Current"
                      },
                      {
                        "desc": "America/Tegucigalpa",
                        "value": "America/Tegucigalpa"
                      },
                      {
                        "desc": "America/Thule",
                        "value": "America/Thule"
                      },
                      {
                        "desc": "America/Thunder_Bay",
                        "value": "America/Thunder_Bay"
                      },
                      {
                        "desc": "America/Tijuana",
                        "value": "America/Tijuana"
                      },
                      {
                        "desc": "America/Toronto",
                        "value": "America/Toronto"
                      },
                      {
                        "desc": "America/Tortola",
                        "value": "America/Tortola"
                      },
                      {
                        "desc": "America/Vancouver",
                        "value": "America/Vancouver"
                      },
                      {
                        "desc": "America/Virgin",
                        "value": "America/Virgin"
                      },
                      {
                        "desc": "America/Whitehorse",
                        "value": "America/Whitehorse"
                      },
                      {
                        "desc": "America/Winnipeg",
                        "value": "America/Winnipeg"
                      },
                      {
                        "desc": "America/Yakutat",
                        "value": "America/Yakutat"
                      },
                      {
                        "desc": "America/Yellowknife",
                        "value": "America/Yellowknife"
                      },
                      {
                        "desc": "Antarctica/Casey",
                        "value": "Antarctica/Casey"
                      },
                      {
                        "desc": "Antarctica/Davis",
                        "value": "Antarctica/Davis"
                      },
                      {
                        "desc": "Antarctica/DumontDUrville",
                        "value": "Antarctica/DumontDUrville"
                      },
                      {
                        "desc": "Antarctica/Macquarie",
                        "value": "Antarctica/Macquarie"
                      },
                      {
                        "desc": "Antarctica/Mawson",
                        "value": "Antarctica/Mawson"
                      },
                      {
                        "desc": "Antarctica/McMurdo",
                        "value": "Antarctica/McMurdo"
                      },
                      {
                        "desc": "Antarctica/Palmer",
                        "value": "Antarctica/Palmer"
                      },
                      {
                        "desc": "Antarctica/Rothera",
                        "value": "Antarctica/Rothera"
                      },
                      {
                        "desc": "Antarctica/South_Pole",
                        "value": "Antarctica/South_Pole"
                      },
                      {
                        "desc": "Antarctica/Syowa",
                        "value": "Antarctica/Syowa"
                      },
                      {
                        "desc": "Antarctica/Troll",
                        "value": "Antarctica/Troll"
                      },
                      {
                        "desc": "Antarctica/Vostok",
                        "value": "Antarctica/Vostok"
                      },
                      {
                        "desc": "Arctic/Longyearbyen",
                        "value": "Arctic/Longyearbyen"
                      },
                      {
                        "desc": "Asia/Aden",
                        "value": "Asia/Aden"
                      },
                      {
                        "desc": "Asia/Almaty",
                        "value": "Asia/Almaty"
                      },
                      {
                        "desc": "Asia/Amman",
                        "value": "Asia/Amman"
                      },
                      {
                        "desc": "Asia/Anadyr",
                        "value": "Asia/Anadyr"
                      },
                      {
                        "desc": "Asia/Aqtau",
                        "value": "Asia/Aqtau"
                      },
                      {
                        "desc": "Asia/Aqtobe",
                        "value": "Asia/Aqtobe"
                      },
                      {
                        "desc": "Asia/Ashgabat",
                        "value": "Asia/Ashgabat"
                      },
                      {
                        "desc": "Asia/Ashkhabad",
                        "value": "Asia/Ashkhabad"
                      },
                      {
                        "desc": "Asia/Atyrau",
                        "value": "Asia/Atyrau"
                      },
                      {
                        "desc": "Asia/Baghdad",
                        "value": "Asia/Baghdad"
                      },
                      {
                        "desc": "Asia/Bahrain",
                        "value": "Asia/Bahrain"
                      },
                      {
                        "desc": "Asia/Baku",
                        "value": "Asia/Baku"
                      },
                      {
                        "desc": "Asia/Bangkok",
                        "value": "Asia/Bangkok"
                      },
                      {
                        "desc": "Asia/Barnaul",
                        "value": "Asia/Barnaul"
                      },
                      {
                        "desc": "Asia/Beirut",
                        "value": "Asia/Beirut"
                      },
                      {
                        "desc": "Asia/Bishkek",
                        "value": "Asia/Bishkek"
                      },
                      {
                        "desc": "Asia/Brunei",
                        "value": "Asia/Brunei"
                      },
                      {
                        "desc": "Asia/Calcutta",
                        "value": "Asia/Calcutta"
                      },
                      {
                        "desc": "Asia/Chita",
                        "value": "Asia/Chita"
                      },
                      {
                        "desc": "Asia/Choibalsan",
                        "value": "Asia/Choibalsan"
                      },
                      {
                        "desc": "Asia/Chongqing",
                        "value": "Asia/Chongqing"
                      },
                      {
                        "desc": "Asia/Chungking",
                        "value": "Asia/Chungking"
                      },
                      {
                        "desc": "Asia/Colombo",
                        "value": "Asia/Colombo"
                      },
                      {
                        "desc": "Asia/Dacca",
                        "value": "Asia/Dacca"
                      },
                      {
                        "desc": "Asia/Damascus",
                        "value": "Asia/Damascus"
                      },
                      {
                        "desc": "Asia/Dhaka",
                        "value": "Asia/Dhaka"
                      },
                      {
                        "desc": "Asia/Dili",
                        "value": "Asia/Dili"
                      },
                      {
                        "desc": "Asia/Dubai",
                        "value": "Asia/Dubai"
                      },
                      {
                        "desc": "Asia/Dushanbe",
                        "value": "Asia/Dushanbe"
                      },
                      {
                        "desc": "Asia/Famagusta",
                        "value": "Asia/Famagusta"
                      },
                      {
                        "desc": "Asia/Gaza",
                        "value": "Asia/Gaza"
                      },
                      {
                        "desc": "Asia/Harbin",
                        "value": "Asia/Harbin"
                      },
                      {
                        "desc": "Asia/Hebron",
                        "value": "Asia/Hebron"
                      },
                      {
                        "desc": "Asia/Ho_Chi_Minh",
                        "value": "Asia/Ho_Chi_Minh"
                      },
                      {
                        "desc": "Asia/Hong_Kong",
                        "value": "Asia/Hong_Kong"
                      },
                      {
                        "desc": "Asia/Hovd",
                        "value": "Asia/Hovd"
                      },
                      {
                        "desc": "Asia/Irkutsk",
                        "value": "Asia/Irkutsk"
                      },
                      {
                        "desc": "Asia/Istanbul",
                        "value": "Asia/Istanbul"
                      },
                      {
                        "desc": "Asia/Jakarta",
                        "value": "Asia/Jakarta"
                      },
                      {
                        "desc": "Asia/Jayapura",
                        "value": "Asia/Jayapura"
                      },
                      {
                        "desc": "Asia/Jerusalem",
                        "value": "Asia/Jerusalem"
                      },
                      {
                        "desc": "Asia/Kabul",
                        "value": "Asia/Kabul"
                      },
                      {
                        "desc": "Asia/Kamchatka",
                        "value": "Asia/Kamchatka"
                      },
                      {
                        "desc": "Asia/Karachi",
                        "value": "Asia/Karachi"
                      },
                      {
                        "desc": "Asia/Kashgar",
                        "value": "Asia/Kashgar"
                      },
                      {
                        "desc": "Asia/Kathmandu",
                        "value": "Asia/Kathmandu"
                      },
                      {
                        "desc": "Asia/Katmandu",
                        "value": "Asia/Katmandu"
                      },
                      {
                        "desc": "Asia/Khandyga",
                        "value": "Asia/Khandyga"
                      },
                      {
                        "desc": "Asia/Kolkata",
                        "value": "Asia/Kolkata"
                      },
                      {
                        "desc": "Asia/Krasnoyarsk",
                        "value": "Asia/Krasnoyarsk"
                      },
                      {
                        "desc": "Asia/Kuala_Lumpur",
                        "value": "Asia/Kuala_Lumpur"
                      },
                      {
                        "desc": "Asia/Kuching",
                        "value": "Asia/Kuching"
                      },
                      {
                        "desc": "Asia/Kuwait",
                        "value": "Asia/Kuwait"
                      },
                      {
                        "desc": "Asia/Macao",
                        "value": "Asia/Macao"
                      },
                      {
                        "desc": "Asia/Macau",
                        "value": "Asia/Macau"
                      },
                      {
                        "desc": "Asia/Magadan",
                        "value": "Asia/Magadan"
                      },
                      {
                        "desc": "Asia/Makassar",
                        "value": "Asia/Makassar"
                      },
                      {
                        "desc": "Asia/Manila",
                        "value": "Asia/Manila"
                      },
                      {
                        "desc": "Asia/Muscat",
                        "value": "Asia/Muscat"
                      },
                      {
                        "desc": "Asia/Nicosia",
                        "value": "Asia/Nicosia"
                      },
                      {
                        "desc": "Asia/Novokuznetsk",
                        "value": "Asia/Novokuznetsk"
                      },
                      {
                        "desc": "Asia/Novosibirsk",
                        "value": "Asia/Novosibirsk"
                      },
                      {
                        "desc": "Asia/Omsk",
                        "value": "Asia/Omsk"
                      },
                      {
                        "desc": "Asia/Oral",
                        "value": "Asia/Oral"
                      },
                      {
                        "desc": "Asia/Phnom_Penh",
                        "value": "Asia/Phnom_Penh"
                      },
                      {
                        "desc": "Asia/Pontianak",
                        "value": "Asia/Pontianak"
                      },
                      {
                        "desc": "Asia/Pyongyang",
                        "value": "Asia/Pyongyang"
                      },
                      {
                        "desc": "Asia/Qatar",
                        "value": "Asia/Qatar"
                      },
                      {
                        "desc": "Asia/Qyzylorda",
                        "value": "Asia/Qyzylorda"
                      },
                      {
                        "desc": "Asia/Rangoon",
                        "value": "Asia/Rangoon"
                      },
                      {
                        "desc": "Asia/Riyadh",
                        "value": "Asia/Riyadh"
                      },
                      {
                        "desc": "Asia/Saigon",
                        "value": "Asia/Saigon"
                      },
                      {
                        "desc": "Asia/Sakhalin",
                        "value": "Asia/Sakhalin"
                      },
                      {
                        "desc": "Asia/Samarkand",
                        "value": "Asia/Samarkand"
                      },
                      {
                        "desc": "Asia/Seoul",
                        "value": "Asia/Seoul"
                      },
                      {
                        "desc": "Asia/Shanghai",
                        "value": "Asia/Shanghai"
                      },
                      {
                        "desc": "Asia/Singapore",
                        "value": "Asia/Singapore"
                      },
                      {
                        "desc": "Asia/Srednekolymsk",
                        "value": "Asia/Srednekolymsk"
                      },
                      {
                        "desc": "Asia/Taipei",
                        "value": "Asia/Taipei"
                      },
                      {
                        "desc": "Asia/Tashkent",
                        "value": "Asia/Tashkent"
                      },
                      {
                        "desc": "Asia/Tbilisi",
                        "value": "Asia/Tbilisi"
                      },
                      {
                        "desc": "Asia/Tehran",
                        "value": "Asia/Tehran"
                      },
                      {
                        "desc": "Asia/Tel_Aviv",
                        "value": "Asia/Tel_Aviv"
                      },
                      {
                        "desc": "Asia/Thimbu",
                        "value": "Asia/Thimbu"
                      },
                      {
                        "desc": "Asia/Thimphu",
                        "value": "Asia/Thimphu"
                      },
                      {
                        "desc": "Asia/Tokyo",
                        "value": "Asia/Tokyo"
                      },
                      {
                        "desc": "Asia/Tomsk",
                        "value": "Asia/Tomsk"
                      },
                      {
                        "desc": "Asia/Ujung_Pandang",
                        "value": "Asia/Ujung_Pandang"
                      },
                      {
                        "desc": "Asia/Ulaanbaatar",
                        "value": "Asia/Ulaanbaatar"
                      },
                      {
                        "desc": "Asia/Ulan_Bator",
                        "value": "Asia/Ulan_Bator"
                      },
                      {
                        "desc": "Asia/Urumqi",
                        "value": "Asia/Urumqi"
                      },
                      {
                        "desc": "Asia/Ust-Nera",
                        "value": "Asia/Ust-Nera"
                      },
                      {
                        "desc": "Asia/Vientiane",
                        "value": "Asia/Vientiane"
                      },
                      {
                        "desc": "Asia/Vladivostok",
                        "value": "Asia/Vladivostok"
                      },
                      {
                        "desc": "Asia/Yakutsk",
                        "value": "Asia/Yakutsk"
                      },
                      {
                        "desc": "Asia/Yangon",
                        "value": "Asia/Yangon"
                      },
                      {
                        "desc": "Asia/Yekaterinburg",
                        "value": "Asia/Yekaterinburg"
                      },
                      {
                        "desc": "Asia/Yerevan",
                        "value": "Asia/Yerevan"
                      },
                      {
                        "desc": "Atlantic/Azores",
                        "value": "Atlantic/Azores"
                      },
                      {
                        "desc": "Atlantic/Bermuda",
                        "value": "Atlantic/Bermuda"
                      },
                      {
                        "desc": "Atlantic/Canary",
                        "value": "Atlantic/Canary"
                      },
                      {
                        "desc": "Atlantic/Cape_Verde",
                        "value": "Atlantic/Cape_Verde"
                      },
                      {
                        "desc": "Atlantic/Faeroe",
                        "value": "Atlantic/Faeroe"
                      },
                      {
                        "desc": "Atlantic/Faroe",
                        "value": "Atlantic/Faroe"
                      },
                      {
                        "desc": "Atlantic/Jan_Mayen",
                        "value": "Atlantic/Jan_Mayen"
                      },
                      {
                        "desc": "Atlantic/Madeira",
                        "value": "Atlantic/Madeira"
                      },
                      {
                        "desc": "Atlantic/Reykjavik",
                        "value": "Atlantic/Reykjavik"
                      },
                      {
                        "desc": "Atlantic/South_Georgia",
                        "value": "Atlantic/South_Georgia"
                      },
                      {
                        "desc": "Atlantic/St_Helena",
                        "value": "Atlantic/St_Helena"
                      },
                      {
                        "desc": "Atlantic/Stanley",
                        "value": "Atlantic/Stanley"
                      },
                      {
                        "desc": "Australia/ACT",
                        "value": "Australia/ACT"
                      },
                      {
                        "desc": "Australia/Adelaide",
                        "value": "Australia/Adelaide"
                      },
                      {
                        "desc": "Australia/Brisbane",
                        "value": "Australia/Brisbane"
                      },
                      {
                        "desc": "Australia/Broken_Hill",
                        "value": "Australia/Broken_Hill"
                      },
                      {
                        "desc": "Australia/Canberra",
                        "value": "Australia/Canberra"
                      },
                      {
                        "desc": "Australia/Currie",
                        "value": "Australia/Currie"
                      },
                      {
                        "desc": "Australia/Darwin",
                        "value": "Australia/Darwin"
                      },
                      {
                        "desc": "Australia/Eucla",
                        "value": "Australia/Eucla"
                      },
                      {
                        "desc": "Australia/Hobart",
                        "value": "Australia/Hobart"
                      },
                      {
                        "desc": "Australia/LHI",
                        "value": "Australia/LHI"
                      },
                      {
                        "desc": "Australia/Lindeman",
                        "value": "Australia/Lindeman"
                      },
                      {
                        "desc": "Australia/Lord_Howe",
                        "value": "Australia/Lord_Howe"
                      },
                      {
                        "desc": "Australia/Melbourne",
                        "value": "Australia/Melbourne"
                      },
                      {
                        "desc": "Australia/NSW",
                        "value": "Australia/NSW"
                      },
                      {
                        "desc": "Australia/North",
                        "value": "Australia/North"
                      },
                      {
                        "desc": "Australia/Perth",
                        "value": "Australia/Perth"
                      },
                      {
                        "desc": "Australia/Queensland",
                        "value": "Australia/Queensland"
                      },
                      {
                        "desc": "Australia/South",
                        "value": "Australia/South"
                      },
                      {
                        "desc": "Australia/Sydney",
                        "value": "Australia/Sydney"
                      },
                      {
                        "desc": "Australia/Tasmania",
                        "value": "Australia/Tasmania"
                      },
                      {
                        "desc": "Australia/Victoria",
                        "value": "Australia/Victoria"
                      },
                      {
                        "desc": "Australia/West",
                        "value": "Australia/West"
                      },
                      {
                        "desc": "Australia/Yancowinna",
                        "value": "Australia/Yancowinna"
                      },
                      {
                        "desc": "Brazil/Acre",
                        "value": "Brazil/Acre"
                      },
                      {
                        "desc": "Brazil/DeNoronha",
                        "value": "Brazil/DeNoronha"
                      },
                      {
                        "desc": "Brazil/East",
                        "value": "Brazil/East"
                      },
                      {
                        "desc": "Brazil/West",
                        "value": "Brazil/West"
                      },
                      {
                        "desc": "CET",
                        "value": "CET"
                      },
                      {
                        "desc": "CST6CDT",
                        "value": "CST6CDT"
                      },
                      {
                        "desc": "Canada/Atlantic",
                        "value": "Canada/Atlantic"
                      },
                      {
                        "desc": "Canada/Central",
                        "value": "Canada/Central"
                      },
                      {
                        "desc": "Canada/East-Saskatchewan",
                        "value": "Canada/East-Saskatchewan"
                      },
                      {
                        "desc": "Canada/Eastern",
                        "value": "Canada/Eastern"
                      },
                      {
                        "desc": "Canada/Mountain",
                        "value": "Canada/Mountain"
                      },
                      {
                        "desc": "Canada/Newfoundland",
                        "value": "Canada/Newfoundland"
                      },
                      {
                        "desc": "Canada/Pacific",
                        "value": "Canada/Pacific"
                      },
                      {
                        "desc": "Canada/Saskatchewan",
                        "value": "Canada/Saskatchewan"
                      },
                      {
                        "desc": "Canada/Yukon",
                        "value": "Canada/Yukon"
                      },
                      {
                        "desc": "Chile/Continental",
                        "value": "Chile/Continental"
                      },
                      {
                        "desc": "Chile/EasterIsland",
                        "value": "Chile/EasterIsland"
                      },
                      {
                        "desc": "Cuba",
                        "value": "Cuba"
                      },
                      {
                        "desc": "EET",
                        "value": "EET"
                      },
                      {
                        "desc": "EST",
                        "value": "EST"
                      },
                      {
                        "desc": "EST5EDT",
                        "value": "EST5EDT"
                      },
                      {
                        "desc": "Egypt",
                        "value": "Egypt"
                      },
                      {
                        "desc": "Eire",
                        "value": "Eire"
                      },
                      {
                        "desc": "Etc/GMT",
                        "value": "Etc/GMT"
                      },
                      {
                        "desc": "Etc/GMT+0",
                        "value": "Etc/GMT+0"
                      },
                      {
                        "desc": "Etc/GMT+1",
                        "value": "Etc/GMT+1"
                      },
                      {
                        "desc": "Etc/GMT+10",
                        "value": "Etc/GMT+10"
                      },
                      {
                        "desc": "Etc/GMT+11",
                        "value": "Etc/GMT+11"
                      },
                      {
                        "desc": "Etc/GMT+12",
                        "value": "Etc/GMT+12"
                      },
                      {
                        "desc": "Etc/GMT+2",
                        "value": "Etc/GMT+2"
                      },
                      {
                        "desc": "Etc/GMT+3",
                        "value": "Etc/GMT+3"
                      },
                      {
                        "desc": "Etc/GMT+4",
                        "value": "Etc/GMT+4"
                      },
                      {
                        "desc": "Etc/GMT+5",
                        "value": "Etc/GMT+5"
                      },
                      {
                        "desc": "Etc/GMT+6",
                        "value": "Etc/GMT+6"
                      },
                      {
                        "desc": "Etc/GMT+7",
                        "value": "Etc/GMT+7"
                      },
                      {
                        "desc": "Etc/GMT+8",
                        "value": "Etc/GMT+8"
                      },
                      {
                        "desc": "Etc/GMT+9",
                        "value": "Etc/GMT+9"
                      },
                      {
                        "desc": "Etc/GMT-0",
                        "value": "Etc/GMT-0"
                      },
                      {
                        "desc": "Etc/GMT-1",
                        "value": "Etc/GMT-1"
                      },
                      {
                        "desc": "Etc/GMT-10",
                        "value": "Etc/GMT-10"
                      },
                      {
                        "desc": "Etc/GMT-11",
                        "value": "Etc/GMT-11"
                      },
                      {
                        "desc": "Etc/GMT-12",
                        "value": "Etc/GMT-12"
                      },
                      {
                        "desc": "Etc/GMT-13",
                        "value": "Etc/GMT-13"
                      },
                      {
                        "desc": "Etc/GMT-14",
                        "value": "Etc/GMT-14"
                      },
                      {
                        "desc": "Etc/GMT-2",
                        "value": "Etc/GMT-2"
                      },
                      {
                        "desc": "Etc/GMT-3",
                        "value": "Etc/GMT-3"
                      },
                      {
                        "desc": "Etc/GMT-4",
                        "value": "Etc/GMT-4"
                      },
                      {
                        "desc": "Etc/GMT-5",
                        "value": "Etc/GMT-5"
                      },
                      {
                        "desc": "Etc/GMT-6",
                        "value": "Etc/GMT-6"
                      },
                      {
                        "desc": "Etc/GMT-7",
                        "value": "Etc/GMT-7"
                      },
                      {
                        "desc": "Etc/GMT-8",
                        "value": "Etc/GMT-8"
                      },
                      {
                        "desc": "Etc/GMT-9",
                        "value": "Etc/GMT-9"
                      },
                      {
                        "desc": "Etc/GMT0",
                        "value": "Etc/GMT0"
                      },
                      {
                        "desc": "Etc/Greenwich",
                        "value": "Etc/Greenwich"
                      },
                      {
                        "desc": "Etc/UCT",
                        "value": "Etc/UCT"
                      },
                      {
                        "desc": "Etc/UTC",
                        "value": "Etc/UTC"
                      },
                      {
                        "desc": "Etc/Universal",
                        "value": "Etc/Universal"
                      },
                      {
                        "desc": "Etc/Zulu",
                        "value": "Etc/Zulu"
                      },
                      {
                        "desc": "Europe/Amsterdam",
                        "value": "Europe/Amsterdam"
                      },
                      {
                        "desc": "Europe/Andorra",
                        "value": "Europe/Andorra"
                      },
                      {
                        "desc": "Europe/Astrakhan",
                        "value": "Europe/Astrakhan"
                      },
                      {
                        "desc": "Europe/Athens",
                        "value": "Europe/Athens"
                      },
                      {
                        "desc": "Europe/Belfast",
                        "value": "Europe/Belfast"
                      },
                      {
                        "desc": "Europe/Belgrade",
                        "value": "Europe/Belgrade"
                      },
                      {
                        "desc": "Europe/Berlin",
                        "value": "Europe/Berlin"
                      },
                      {
                        "desc": "Europe/Bratislava",
                        "value": "Europe/Bratislava"
                      },
                      {
                        "desc": "Europe/Brussels",
                        "value": "Europe/Brussels"
                      },
                      {
                        "desc": "Europe/Bucharest",
                        "value": "Europe/Bucharest"
                      },
                      {
                        "desc": "Europe/Budapest",
                        "value": "Europe/Budapest"
                      },
                      {
                        "desc": "Europe/Busingen",
                        "value": "Europe/Busingen"
                      },
                      {
                        "desc": "Europe/Chisinau",
                        "value": "Europe/Chisinau"
                      },
                      {
                        "desc": "Europe/Copenhagen",
                        "value": "Europe/Copenhagen"
                      },
                      {
                        "desc": "Europe/Dublin",
                        "value": "Europe/Dublin"
                      },
                      {
                        "desc": "Europe/Gibraltar",
                        "value": "Europe/Gibraltar"
                      },
                      {
                        "desc": "Europe/Guernsey",
                        "value": "Europe/Guernsey"
                      },
                      {
                        "desc": "Europe/Helsinki",
                        "value": "Europe/Helsinki"
                      },
                      {
                        "desc": "Europe/Isle_of_Man",
                        "value": "Europe/Isle_of_Man"
                      },
                      {
                        "desc": "Europe/Istanbul",
                        "value": "Europe/Istanbul"
                      },
                      {
                        "desc": "Europe/Jersey",
                        "value": "Europe/Jersey"
                      },
                      {
                        "desc": "Europe/Kaliningrad",
                        "value": "Europe/Kaliningrad"
                      },
                      {
                        "desc": "Europe/Kiev",
                        "value": "Europe/Kiev"
                      },
                      {
                        "desc": "Europe/Kirov",
                        "value": "Europe/Kirov"
                      },
                      {
                        "desc": "Europe/Lisbon",
                        "value": "Europe/Lisbon"
                      },
                      {
                        "desc": "Europe/Ljubljana",
                        "value": "Europe/Ljubljana"
                      },
                      {
                        "desc": "Europe/London",
                        "value": "Europe/London"
                      },
                      {
                        "desc": "Europe/Luxembourg",
                        "value": "Europe/Luxembourg"
                      },
                      {
                        "desc": "Europe/Madrid",
                        "value": "Europe/Madrid"
                      },
                      {
                        "desc": "Europe/Malta",
                        "value": "Europe/Malta"
                      },
                      {
                        "desc": "Europe/Mariehamn",
                        "value": "Europe/Mariehamn"
                      },
                      {
                        "desc": "Europe/Minsk",
                        "value": "Europe/Minsk"
                      },
                      {
                        "desc": "Europe/Monaco",
                        "value": "Europe/Monaco"
                      },
                      {
                        "desc": "Europe/Moscow",
                        "value": "Europe/Moscow"
                      },
                      {
                        "desc": "Europe/Nicosia",
                        "value": "Europe/Nicosia"
                      },
                      {
                        "desc": "Europe/Oslo",
                        "value": "Europe/Oslo"
                      },
                      {
                        "desc": "Europe/Paris",
                        "value": "Europe/Paris"
                      },
                      {
                        "desc": "Europe/Podgorica",
                        "value": "Europe/Podgorica"
                      },
                      {
                        "desc": "Europe/Prague",
                        "value": "Europe/Prague"
                      },
                      {
                        "desc": "Europe/Riga",
                        "value": "Europe/Riga"
                      },
                      {
                        "desc": "Europe/Rome",
                        "value": "Europe/Rome"
                      },
                      {
                        "desc": "Europe/Samara",
                        "value": "Europe/Samara"
                      },
                      {
                        "desc": "Europe/San_Marino",
                        "value": "Europe/San_Marino"
                      },
                      {
                        "desc": "Europe/Sarajevo",
                        "value": "Europe/Sarajevo"
                      },
                      {
                        "desc": "Europe/Saratov",
                        "value": "Europe/Saratov"
                      },
                      {
                        "desc": "Europe/Simferopol",
                        "value": "Europe/Simferopol"
                      },
                      {
                        "desc": "Europe/Skopje",
                        "value": "Europe/Skopje"
                      },
                      {
                        "desc": "Europe/Sofia",
                        "value": "Europe/Sofia"
                      },
                      {
                        "desc": "Europe/Stockholm",
                        "value": "Europe/Stockholm"
                      },
                      {
                        "desc": "Europe/Tallinn",
                        "value": "Europe/Tallinn"
                      },
                      {
                        "desc": "Europe/Tirane",
                        "value": "Europe/Tirane"
                      },
                      {
                        "desc": "Europe/Tiraspol",
                        "value": "Europe/Tiraspol"
                      },
                      {
                        "desc": "Europe/Ulyanovsk",
                        "value": "Europe/Ulyanovsk"
                      },
                      {
                        "desc": "Europe/Uzhgorod",
                        "value": "Europe/Uzhgorod"
                      },
                      {
                        "desc": "Europe/Vaduz",
                        "value": "Europe/Vaduz"
                      },
                      {
                        "desc": "Europe/Vatican",
                        "value": "Europe/Vatican"
                      },
                      {
                        "desc": "Europe/Vienna",
                        "value": "Europe/Vienna"
                      },
                      {
                        "desc": "Europe/Vilnius",
                        "value": "Europe/Vilnius"
                      },
                      {
                        "desc": "Europe/Volgograd",
                        "value": "Europe/Volgograd"
                      },
                      {
                        "desc": "Europe/Warsaw",
                        "value": "Europe/Warsaw"
                      },
                      {
                        "desc": "Europe/Zagreb",
                        "value": "Europe/Zagreb"
                      },
                      {
                        "desc": "Europe/Zaporozhye",
                        "value": "Europe/Zaporozhye"
                      },
                      {
                        "desc": "Europe/Zurich",
                        "value": "Europe/Zurich"
                      },
                      {
                        "desc": "GB",
                        "value": "GB"
                      },
                      {
                        "desc": "GB-Eire",
                        "value": "GB-Eire"
                      },
                      {
                        "desc": "GMT",
                        "value": "GMT"
                      },
                      {
                        "desc": "GMT+0",
                        "value": "GMT+0"
                      },
                      {
                        "desc": "GMT-0",
                        "value": "GMT-0"
                      },
                      {
                        "desc": "GMT0",
                        "value": "GMT0"
                      },
                      {
                        "desc": "Greenwich",
                        "value": "Greenwich"
                      },
                      {
                        "desc": "HST",
                        "value": "HST"
                      },
                      {
                        "desc": "Hongkong",
                        "value": "Hongkong"
                      },
                      {
                        "desc": "Iceland",
                        "value": "Iceland"
                      },
                      {
                        "desc": "Indian/Antananarivo",
                        "value": "Indian/Antananarivo"
                      },
                      {
                        "desc": "Indian/Chagos",
                        "value": "Indian/Chagos"
                      },
                      {
                        "desc": "Indian/Christmas",
                        "value": "Indian/Christmas"
                      },
                      {
                        "desc": "Indian/Cocos",
                        "value": "Indian/Cocos"
                      },
                      {
                        "desc": "Indian/Comoro",
                        "value": "Indian/Comoro"
                      },
                      {
                        "desc": "Indian/Kerguelen",
                        "value": "Indian/Kerguelen"
                      },
                      {
                        "desc": "Indian/Mahe",
                        "value": "Indian/Mahe"
                      },
                      {
                        "desc": "Indian/Maldives",
                        "value": "Indian/Maldives"
                      },
                      {
                        "desc": "Indian/Mauritius",
                        "value": "Indian/Mauritius"
                      },
                      {
                        "desc": "Indian/Mayotte",
                        "value": "Indian/Mayotte"
                      },
                      {
                        "desc": "Indian/Reunion",
                        "value": "Indian/Reunion"
                      },
                      {
                        "desc": "Iran",
                        "value": "Iran"
                      },
                      {
                        "desc": "Israel",
                        "value": "Israel"
                      },
                      {
                        "desc": "Jamaica",
                        "value": "Jamaica"
                      },
                      {
                        "desc": "Japan",
                        "value": "Japan"
                      },
                      {
                        "desc": "Kwajalein",
                        "value": "Kwajalein"
                      },
                      {
                        "desc": "Libya",
                        "value": "Libya"
                      },
                      {
                        "desc": "MET",
                        "value": "MET"
                      },
                      {
                        "desc": "MST",
                        "value": "MST"
                      },
                      {
                        "desc": "MST7MDT",
                        "value": "MST7MDT"
                      },
                      {
                        "desc": "Mexico/BajaNorte",
                        "value": "Mexico/BajaNorte"
                      },
                      {
                        "desc": "Mexico/BajaSur",
                        "value": "Mexico/BajaSur"
                      },
                      {
                        "desc": "Mexico/General",
                        "value": "Mexico/General"
                      },
                      {
                        "desc": "NZ",
                        "value": "NZ"
                      },
                      {
                        "desc": "NZ-CHAT",
                        "value": "NZ-CHAT"
                      },
                      {
                        "desc": "Navajo",
                        "value": "Navajo"
                      },
                      {
                        "desc": "PRC",
                        "value": "PRC"
                      },
                      {
                        "desc": "PST8PDT",
                        "value": "PST8PDT"
                      },
                      {
                        "desc": "Pacific/Apia",
                        "value": "Pacific/Apia"
                      },
                      {
                        "desc": "Pacific/Auckland",
                        "value": "Pacific/Auckland"
                      },
                      {
                        "desc": "Pacific/Bougainville",
                        "value": "Pacific/Bougainville"
                      },
                      {
                        "desc": "Pacific/Chatham",
                        "value": "Pacific/Chatham"
                      },
                      {
                        "desc": "Pacific/Chuuk",
                        "value": "Pacific/Chuuk"
                      },
                      {
                        "desc": "Pacific/Easter",
                        "value": "Pacific/Easter"
                      },
                      {
                        "desc": "Pacific/Efate",
                        "value": "Pacific/Efate"
                      },
                      {
                        "desc": "Pacific/Enderbury",
                        "value": "Pacific/Enderbury"
                      },
                      {
                        "desc": "Pacific/Fakaofo",
                        "value": "Pacific/Fakaofo"
                      },
                      {
                        "desc": "Pacific/Fiji",
                        "value": "Pacific/Fiji"
                      },
                      {
                        "desc": "Pacific/Funafuti",
                        "value": "Pacific/Funafuti"
                      },
                      {
                        "desc": "Pacific/Galapagos",
                        "value": "Pacific/Galapagos"
                      },
                      {
                        "desc": "Pacific/Gambier",
                        "value": "Pacific/Gambier"
                      },
                      {
                        "desc": "Pacific/Guadalcanal",
                        "value": "Pacific/Guadalcanal"
                      },
                      {
                        "desc": "Pacific/Guam",
                        "value": "Pacific/Guam"
                      },
                      {
                        "desc": "Pacific/Honolulu",
                        "value": "Pacific/Honolulu"
                      },
                      {
                        "desc": "Pacific/Johnston",
                        "value": "Pacific/Johnston"
                      },
                      {
                        "desc": "Pacific/Kiritimati",
                        "value": "Pacific/Kiritimati"
                      },
                      {
                        "desc": "Pacific/Kosrae",
                        "value": "Pacific/Kosrae"
                      },
                      {
                        "desc": "Pacific/Kwajalein",
                        "value": "Pacific/Kwajalein"
                      },
                      {
                        "desc": "Pacific/Majuro",
                        "value": "Pacific/Majuro"
                      },
                      {
                        "desc": "Pacific/Marquesas",
                        "value": "Pacific/Marquesas"
                      },
                      {
                        "desc": "Pacific/Midway",
                        "value": "Pacific/Midway"
                      },
                      {
                        "desc": "Pacific/Nauru",
                        "value": "Pacific/Nauru"
                      },
                      {
                        "desc": "Pacific/Niue",
                        "value": "Pacific/Niue"
                      },
                      {
                        "desc": "Pacific/Norfolk",
                        "value": "Pacific/Norfolk"
                      },
                      {
                        "desc": "Pacific/Noumea",
                        "value": "Pacific/Noumea"
                      },
                      {
                        "desc": "Pacific/Pago_Pago",
                        "value": "Pacific/Pago_Pago"
                      },
                      {
                        "desc": "Pacific/Palau",
                        "value": "Pacific/Palau"
                      },
                      {
                        "desc": "Pacific/Pitcairn",
                        "value": "Pacific/Pitcairn"
                      },
                      {
                        "desc": "Pacific/Pohnpei",
                        "value": "Pacific/Pohnpei"
                      },
                      {
                        "desc": "Pacific/Ponape",
                        "value": "Pacific/Ponape"
                      },
                      {
                        "desc": "Pacific/Port_Moresby",
                        "value": "Pacific/Port_Moresby"
                      },
                      {
                        "desc": "Pacific/Rarotonga",
                        "value": "Pacific/Rarotonga"
                      },
                      {
                        "desc": "Pacific/Saipan",
                        "value": "Pacific/Saipan"
                      },
                      {
                        "desc": "Pacific/Samoa",
                        "value": "Pacific/Samoa"
                      },
                      {
                        "desc": "Pacific/Tahiti",
                        "value": "Pacific/Tahiti"
                      },
                      {
                        "desc": "Pacific/Tarawa",
                        "value": "Pacific/Tarawa"
                      },
                      {
                        "desc": "Pacific/Tongatapu",
                        "value": "Pacific/Tongatapu"
                      },
                      {
                        "desc": "Pacific/Truk",
                        "value": "Pacific/Truk"
                      },
                      {
                        "desc": "Pacific/Wake",
                        "value": "Pacific/Wake"
                      },
                      {
                        "desc": "Pacific/Wallis",
                        "value": "Pacific/Wallis"
                      },
                      {
                        "desc": "Pacific/Yap",
                        "value": "Pacific/Yap"
                      },
                      {
                        "desc": "Poland",
                        "value": "Poland"
                      },
                      {
                        "desc": "Portugal",
                        "value": "Portugal"
                      },
                      {
                        "desc": "ROC",
                        "value": "ROC"
                      },
                      {
                        "desc": "ROK",
                        "value": "ROK"
                      },
                      {
                        "desc": "Singapore",
                        "value": "Singapore"
                      },
                      {
                        "desc": "Turkey",
                        "value": "Turkey"
                      },
                      {
                        "desc": "UCT",
                        "value": "UCT"
                      },
                      {
                        "desc": "US/Alaska",
                        "value": "US/Alaska"
                      },
                      {
                        "desc": "US/Aleutian",
                        "value": "US/Aleutian"
                      },
                      {
                        "desc": "US/Arizona",
                        "value": "US/Arizona"
                      },
                      {
                        "desc": "US/Central",
                        "value": "US/Central"
                      },
                      {
                        "desc": "US/East-Indiana",
                        "value": "US/East-Indiana"
                      },
                      {
                        "desc": "US/Eastern",
                        "value": "US/Eastern"
                      },
                      {
                        "desc": "US/Hawaii",
                        "value": "US/Hawaii"
                      },
                      {
                        "desc": "US/Indiana-Starke",
                        "value": "US/Indiana-Starke"
                      },
                      {
                        "desc": "US/Michigan",
                        "value": "US/Michigan"
                      },
                      {
                        "desc": "US/Mountain",
                        "value": "US/Mountain"
                      },
                      {
                        "desc": "US/Pacific",
                        "value": "US/Pacific"
                      },
                      {
                        "desc": "US/Pacific-New",
                        "value": "US/Pacific-New"
                      },
                      {
                        "desc": "US/Samoa",
                        "value": "US/Samoa"
                      },
                      {
                        "desc": "UTC",
                        "value": "UTC"
                      },
                      {
                        "desc": "Universal",
                        "value": "Universal"
                      },
                      {
                        "desc": "W-SU",
                        "value": "W-SU"
                      },
                      {
                        "desc": "WET",
                        "value": "WET"
                      },
                      {
                        "desc": "Zulu",
                        "value": "Zulu"
                      }
                    ]
                  }
                }
              }
            }
          }
        }
      }
    }
  }
}